<?xml version="1.0" encoding="utf-8"?>
<!-- Generator: Adobe Illustrator 16.0.0, SVG Export Plug-In . SVG Version: 6.00 Build 0)  -->
<!DOCTYPE svg PUBLIC "-//W3C//DTD SVG 1.1//EN" "http://www.w3.org/Graphics/SVG/1.1/DTD/svg11.dtd">
<svg version="1.1" id="Calque_1" xmlns="http://www.w3.org/2000/svg" xmlns:xlink="http://www.w3.org/1999/xlink" x="0px" y="0px"
	 width="20px" height="20px" viewBox="0 0 20 20" enable-background="new 0 0 20 20" xml:space="preserve">
<g>
	<g>
		<path fill-rule="evenodd" clip-rule="evenodd" d="M13.651,15.512H3.666V5.525h5.447l3.631-3.632H3.666L1.874,3.687L0.035,5.525
			v9.986l3.631,3.631h9.985l3.632-3.631V9.156l-3.632,3.631V15.512z M7.297,13.695h1.815l7.262-7.262L14.56,4.617L7.297,11.88
			V13.695z M18.191,0.986l-1.816,1.816l1.816,1.815l1.815-1.815L18.191,0.986z"/>
	</g>
</g>
</svg>
