<?xml version="1.0" standalone="no"?>
<!DOCTYPE svg PUBLIC "-//W3C//DTD SVG 1.1//EN" "http://www.w3.org/Graphics/SVG/1.1/DTD/svg11.dtd">
<svg xmlns="http://www.w3.org/2000/svg">
<metadata>Copyright (C) 2014 by original authors @ fontello.com</metadata>
<defs>
<font id="icons" horiz-adv-x="1000" >
<font-face font-family="icons" font-weight="400" font-stretch="normal" units-per-em="1000" ascent="850" descent="-150" />
<missing-glyph horiz-adv-x="1000" />
<glyph glyph-name="bag" unicode="&#xe800;" d="m0-100h1000v250h-1000v-250z m900 750h-250v100l-50 50h-200l-50-50v-100h-250l-100-100v-350h400v100h200v-100h400v350l-100 100z m-350 0h-100v50h100v-50z" horiz-adv-x="1000" />
<glyph glyph-name="facebook" unicode="&#xe801;" d="m576-150l-204 0 0 500-103 0 0 172 103 0 0 104c0 140 57 224 221 224l137 0 0-173-85 0c-64 0-68-24-68-69l-1-86 155 0-18-172-137 0 0-500z" horiz-adv-x="1000" />
<glyph glyph-name="file" unicode="&#xe802;" d="m555 851h-429v-1002h763v573h-334v429z m95-48v-286h239l-239 286z" horiz-adv-x="1000" />
<glyph glyph-name="head" unicode="&#xe803;" d="m-2-55v-95h1002v95l-334 239v95c0 0 31 7 48 48 28 70 48 191 48 191s14 151-48 238c-57 80-191 96-191 96h-48c0 0-133-15-190-96-62-86-48-238-48-238s20-121 48-191c16-40 47-48 47-48v-95l-334-239z" horiz-adv-x="1000" />
<glyph glyph-name="mail" unicode="&#xe804;" d="m1000 755h-1000l500-476 500 476z m0-714v571l-300-286 300-285z m-350 238l-150-143-150 143-350-334h1000c0 0-6 6-16 15-67 65-334 319-334 319z m-650 333v-571l300 285-300 286z" horiz-adv-x="1000" />
<glyph glyph-name="mark" unicode="&#xe805;" d="m125 850h750v-1000l-375 375-375-375v1000z" horiz-adv-x="1000" />
<glyph glyph-name="pin" unicode="&#xe806;" d="m513 848c-201 0-365-163-365-365 0-251 313-629 365-629 60 0 364 378 364 629 0 202-163 365-364 365z m0-596c-128 0-232 103-232 231 0 128 104 232 232 232 128 0 232-104 232-232 0-128-104-231-232-231z" horiz-adv-x="1000" />
<glyph glyph-name="star" unicode="&#xe807;" d="m998 457l-309-222 117-362-307 225-308-223 119 361-307 224 380-2 118 362 116-362 381-1z" horiz-adv-x="1000" />
<glyph glyph-name="write" unicode="&#xe808;" d="m683 74h-500v500h273l181 181h-454l-89-89-92-92v-499l181-182h500l181 182v317l-181-181v-137z m-318 91h91l363 363-91 91-363-363v-91z m545 636l-91-91 91-91 90 91-90 91z" horiz-adv-x="1000" />
<glyph glyph-name="graph" unicode="&#xe809;" d="m63-150h125v250h-125v-250z m250 0h125v438h-125v-438z m250 0h125v688h-125v-688z m250 1000v-1000h125v1000h-125z" horiz-adv-x="1000" />
<glyph glyph-name="grid" unicode="&#xe80a;" d="m0 587h263v263h-263v-263z m368 0h264v263h-264v-263z m369 263v-263h263v263h-263z m-737-631h263v263h-263v-263z m368 0h264v263h-264v-263z m369 0h263v263h-263v-263z m-737-369h263v263h-263v-263z m368 0h264v263h-264v-263z m369 0h263v263h-263v-263z" horiz-adv-x="1000" />
<glyph glyph-name="menu" unicode="&#xe80b;" d="m857 100v-71q0-15-10-25t-26-11h-785q-15 0-25 11t-11 25v71q0 15 11 25t25 11h785q15 0 26-11t10-25z m0 286v-72q0-14-10-25t-26-10h-785q-15 0-25 10t-11 25v72q0 14 11 25t25 10h785q15 0 26-10t10-25z m0 285v-71q0-15-10-25t-26-11h-785q-15 0-25 11t-11 25v71q0 15 11 26t25 10h785q15 0 26-10t10-26z" horiz-adv-x="857.1" />
</font>
</defs>
</svg>